[
    {
        "id": 1,
        "name": "Потеря клуючей от дома",
        "description": "Пугающе страшно",
        "image": {
            "src": "https://img3.goodfon.ru/wallpaper/nbig/a/e2/kurazh-kurazh-truslivyy-pes-1461.jpg"
        }
    },
    {
        "id": 2,
        "name": "Новые знакомства",
        "description": "Очень страшно",
        "image": {
            "src": "https://pp.userapi.com/c1253/u4546939/4726191/x_f3f9cbf4.jpg"
        }
    },
    {
        "id": 3,
        "name": "Кошмар",
        "description": "Очень боюсь",
        "image": {
            "src": "https://pp.userapi.com/c1237/u9798824/4726191/x_3fa52e37.jpg"
        }
    },
    {
        "id": 4,
        "name": "Ужас",
        "description": "Не могу даже ночью спать",
        "image": {
            "src": "https://pp.userapi.com/c1571/u1622260/4726191/x_6cc7f58e.jpg"
        }
    }
]